<svg width="50" height="33" viewBox="0 0 50 33" fill="none" xmlns="http://www.w3.org/2000/svg">
<path d="M46.8253 0.571289H3.40316C1.64954 0.571289 0.228271 1.99255 0.228271 3.74618V7.13675V8.24279V24.8998V26.0058V29.3964C0.228271 31.15 1.64954 32.5713 3.40316 32.5713H46.8253C48.5789 32.5713 50.0001 31.15 50.0001 29.3964V26.0058V24.8998V8.24279V7.13675V3.74618C50.0001 1.99255 48.5789 0.571289 46.8253 0.571289Z" fill="#F0F0F0"/>
<path d="M6.91154 11.2478C6.79651 11.2478 6.69918 11.3313 6.68093 11.4447L5.35147 19.8777C5.33322 19.9955 5.4134 20.1061 5.5312 20.1243C5.54226 20.126 5.55332 20.1271 5.56438 20.1271H7.14104C7.25552 20.1271 7.3534 20.0436 7.37165 19.9302L7.76208 17.4538C7.77978 17.3404 7.87766 17.2569 7.99269 17.2569H9.42612C11.1012 17.2569 12.523 16.0348 12.783 14.3785C13.0451 12.7083 11.74 11.2517 9.89066 11.2484L6.91154 11.2478ZM8.44451 13.1303H9.59148C10.536 13.1303 10.8435 13.6877 10.7462 14.3038C10.6489 14.9215 10.1716 15.3761 9.258 15.3761H8.09058L8.44451 13.1303ZM15.9905 13.7038C15.5923 13.7054 15.1339 13.7867 14.6195 14.0013C13.4394 14.4929 12.8731 15.5094 12.6325 16.2504C12.6325 16.2504 11.8666 18.5112 13.597 19.7533C13.597 19.7533 15.2019 20.9489 17.008 19.6797L16.9771 19.8782C16.9588 19.996 17.039 20.1066 17.1568 20.1249C17.1679 20.1266 17.1789 20.1277 17.19 20.1277H18.687C18.802 20.1277 18.8994 20.0442 18.9176 19.9308L19.8284 14.1561C19.8472 14.0383 19.7665 13.9277 19.6487 13.9089C19.6377 13.9073 19.6266 13.9062 19.615 13.9062H18.1185C18.0035 13.9062 17.9061 13.9897 17.8879 14.103L17.8387 14.4138C17.8392 14.4133 17.1856 13.6993 15.9905 13.7038ZM16.0397 15.5276C16.2117 15.5276 16.3687 15.5514 16.5098 15.5968C17.1557 15.8041 17.5218 16.4246 17.4162 17.0971C17.2857 17.9255 16.6065 18.535 15.735 18.535C15.563 18.535 15.4059 18.5112 15.2649 18.4658C14.619 18.2584 14.2507 17.638 14.3569 16.9655C14.4874 16.1376 15.1687 15.5276 16.0397 15.5276Z" fill="#003087"/>
<path d="M28.4689 11.2478C28.3539 11.2478 28.2565 11.3313 28.2383 11.4447L26.9088 19.8771C26.8906 19.9949 26.9708 20.1055 27.0886 20.1238C27.0996 20.1254 27.1107 20.1266 27.1218 20.1266H28.6984C28.8129 20.1266 28.9108 20.043 28.929 19.9297L29.3195 17.4533C29.3372 17.3399 29.435 17.2564 29.5501 17.2564H30.9835C32.6586 17.2564 34.0804 16.0342 34.3403 14.3779C34.6025 12.7078 33.2979 11.2511 31.4486 11.2478H28.4689ZM30.0019 13.1303H31.1488C32.0934 13.1303 32.4009 13.6877 32.3036 14.3038C32.2062 14.9215 31.729 15.3761 30.8154 15.3761H29.648L30.0019 13.1303ZM37.5484 13.7038C37.1502 13.7054 36.6918 13.7867 36.1775 14.0013C34.9973 14.4929 34.431 15.5094 34.1905 16.2504C34.1905 16.2504 33.4251 18.5112 35.1555 19.7533C35.1555 19.7533 36.7598 20.9489 38.5665 19.6797L38.5355 19.8782C38.5173 19.996 38.5975 20.1066 38.7153 20.1249C38.7263 20.1266 38.7374 20.1277 38.7485 20.1277H40.2455C40.3605 20.1277 40.4578 20.0442 40.4761 19.9308L41.3869 14.1561C41.4057 14.0383 41.325 13.9277 41.2072 13.9089C41.1961 13.9073 41.1845 13.9062 41.1735 13.9062H39.6764C39.5614 13.9062 39.4641 13.9897 39.4458 14.103L39.3966 14.4138C39.3972 14.4133 38.7429 13.6993 37.5484 13.7038ZM37.5971 15.5276C37.7691 15.5276 37.9261 15.5514 38.0671 15.5968C38.7131 15.8041 39.0792 16.4246 38.9735 17.0971C38.843 17.9255 38.1639 18.535 37.2924 18.535C37.1204 18.535 36.9633 18.5112 36.8223 18.4658C36.1764 18.2584 35.8081 17.638 35.9142 16.9655C36.0447 16.1376 36.7261 15.5276 37.5971 15.5276Z" fill="#0070E0"/>
<path d="M20.5384 13.9058C20.4195 13.9058 20.3355 14.0219 20.3714 14.1347L22.0128 19.2275L20.529 21.6276C20.4571 21.7443 20.5406 21.8947 20.6778 21.8947H22.432C22.5337 21.8947 22.6283 21.8411 22.6814 21.7537L27.2648 14.1712C27.3351 14.0545 27.251 13.9058 27.115 13.9058H25.3613C25.2585 13.9058 25.1628 13.9605 25.1103 14.049L23.3063 17.095L22.3905 14.0717C22.3606 13.9732 22.2699 13.9058 22.1671 13.9058H20.5384Z" fill="#003087"/>
<path d="M43.0873 11.2478C42.9728 11.2478 42.8749 11.3313 42.8567 11.4447L41.5266 19.8771C41.5078 19.9949 41.5886 20.1055 41.7064 20.1243C41.7174 20.126 41.7291 20.1271 41.7401 20.1271H43.3168C43.4312 20.1271 43.5291 20.0436 43.5474 19.9302L44.8768 11.4978C44.8951 11.38 44.8149 11.2694 44.6971 11.2511C44.6861 11.2495 44.675 11.2484 44.6639 11.2484L43.0873 11.2478Z" fill="#0070E0"/>
<path d="M2.44035 29.3964V26.0058V24.8998V8.24279V7.13675V3.74618C2.44035 1.99255 3.86162 0.571289 5.61525 0.571289H3.40316C1.64954 0.571289 0.228271 1.99255 0.228271 3.74618V7.13675V26.0058V29.3964C0.228271 31.15 1.64954 32.5713 3.40316 32.5713H5.61525C3.86162 32.5713 2.44035 31.15 2.44035 29.3964Z" fill="#D4D4D4"/>
</svg>
