<svg width="205" height="185" viewBox="0 0 205 185" fill="none" xmlns="http://www.w3.org/2000/svg">
<g clip-path="url(#clip0_1470_9160)">
<rect y="14.7527" width="100" height="160" rx="10" transform="rotate(-5.02135 0 14.7527)" fill="#32465F"/>
<g clip-path="url(#clip1_1470_9160)">
<g clip-path="url(#clip2_1470_9160)">
<path d="M88.0603 130.682C89.0607 142.068 76.6864 143.494 61.386 144.838C46.0848 146.183 33.6506 146.937 32.6501 135.55C31.6496 124.163 42.4616 104.947 57.7629 103.603C73.0632 102.258 87.0597 119.294 88.0603 130.682Z" fill="#BD313E"/>
<path d="M58.6159 113.321C54.8583 113.651 51.5448 110.872 51.2148 107.115L50.1047 94.4807L63.7122 93.2851L64.8223 105.919C65.1523 109.676 62.3743 112.99 58.6159 113.321Z" fill="#905768"/>
<path d="M55.0012 104.402C58.5525 104.09 61.9026 104.674 64.8291 105.997L63.5705 91.6727L49.9621 92.8684L51.0572 105.332C52.3195 104.845 53.6405 104.521 55.0012 104.402Z" fill="#8C4D60"/>
<path d="M33.1384 77.5969C33.492 81.6219 31.3007 85.102 28.2437 85.3706C25.1876 85.6391 22.4229 82.5945 22.0693 78.5695C21.7156 74.5444 23.9069 71.0635 26.963 70.795C30.02 70.5264 32.7847 73.5718 33.1384 77.5969Z" fill="#8C4D60"/>
<path d="M88.6175 72.7222C88.9712 76.7473 86.7807 80.2272 83.7237 80.4958C80.6676 80.7643 77.903 77.7198 77.5493 73.6947C77.1957 69.6697 79.387 66.1888 82.4431 65.9202C85.5 65.6516 88.2639 68.6972 88.6175 72.7222Z" fill="#8C4D60"/>
<path d="M81.1084 73.382C82.3605 87.6323 71.8233 100.2 57.573 101.452C43.3227 102.704 30.7554 92.1665 29.5033 77.9162C28.2512 63.6659 38.7884 51.0978 53.0387 49.8457C67.289 48.5936 79.8563 59.1317 81.1084 73.382Z" fill="#905768"/>
<path d="M41.9595 79.1634C41.8295 77.6837 42.5584 76.4111 43.5878 76.3206C44.6171 76.2302 45.5568 77.3562 45.6869 78.8359" stroke="#534741" stroke-width="0.00984252" stroke-miterlimit="10" stroke-linecap="round"/>
<path d="M65.3341 77.1095C65.2041 75.6297 65.9322 74.3572 66.9624 74.2667C67.9917 74.1762 68.9314 75.3022 69.0614 76.782" stroke="#534741" stroke-width="0.00984252" stroke-miterlimit="10" stroke-linecap="round"/>
<path d="M61.1402 81.7359C61.2495 82.9801 58.9835 84.1956 56.0792 84.4508C53.175 84.7059 50.7326 83.9041 50.6233 82.6599C50.514 81.4158 52.4176 76.0864 55.3219 75.8312C58.2261 75.576 61.0308 80.4917 61.1402 81.7359Z" fill="#7A3D50"/>
<path d="M60.7038 86.3085C60.8771 88.2818 59.0357 90.0547 56.5905 90.2696C54.1461 90.4843 52.0238 89.0597 51.8504 87.0864L60.7038 86.3085Z" fill="#534741"/>
<g opacity="0.3">
<path d="M43.729 84.2803C43.8743 85.9344 42.0137 87.449 39.5745 87.6633C37.1344 87.8777 35.0382 86.7107 34.8928 85.0567C34.7475 83.4027 36.6082 81.8889 39.0483 81.6745C41.4875 81.4602 43.5836 82.6263 43.729 84.2803Z" fill="#E68284"/>
</g>
<g opacity="0.3">
<path d="M68.2105 82.1292C68.3559 83.7833 70.4521 84.9502 72.8922 84.7358C75.3322 84.5215 77.192 83.0069 77.0467 81.3529C76.9013 79.6988 74.806 78.5326 72.366 78.747C69.9259 78.9614 68.0652 80.4752 68.2105 82.1292Z" fill="#E68284"/>
</g>
<path d="M37.9238 71.1927C37.9238 71.1927 41.3712 66.3824 47.7293 69.8703" stroke="#333333" stroke-width="0.0147244" stroke-miterlimit="10" stroke-linecap="round"/>
<path d="M71.6445 68.2298C71.6445 68.2298 67.4111 64.0944 61.7595 68.6375" stroke="#333333" stroke-width="0.0147244" stroke-miterlimit="10" stroke-linecap="round"/>
<path d="M81.171 74.0927C81.171 74.0927 87.5047 71.7729 85.1445 64.9393C85.1445 64.9393 89.2639 61.7411 86.8337 57.4559C84.4035 53.1716 80.9335 54.8451 80.9335 54.8451C80.9335 54.8451 82.1512 48.6744 77.8137 44.948C73.4764 41.2226 68.8427 45.2476 67.6211 46.92C67.6211 46.92 70.1702 38.7742 63.7048 37.1912C57.2385 35.6074 57.1007 45.3012 57.1007 45.3012C57.1007 45.3012 55.2189 34.7093 46.5024 35.7691C37.7868 36.8279 39.6778 46.9303 40.6205 48.9011C39.1251 47.4675 31.4105 44.9187 27.7902 49.3433C24.169 53.7689 26.444 59.6328 26.444 59.6328C26.444 59.6328 22.7345 58.5901 21.0887 63.2326C19.443 67.8758 24.057 70.3067 24.057 70.3067C22.9246 77.4472 29.5658 78.627 29.5658 78.627C29.5658 78.627 31.4639 75.0545 31.058 70.4349C31.058 70.4349 36.295 68.8236 35.9399 62.5554C35.9399 62.5554 39.6431 64.6342 40.8977 61.1008C40.8977 61.1008 49.1129 72.5056 61.1149 63.7249C61.1149 63.7249 63.9304 68.3674 69.0377 65.2789C69.0377 65.2789 72.497 71.3317 77.0743 68.2881C77.0743 68.2881 77.9063 73.5014 81.171 74.0927Z" fill="#333333"/>
</g>
</g>
<path d="M63.7544 9.15097L99.6162 6L102.767 41.8618L63.7544 9.15097Z" fill="#292931"/>
<path d="M82.4972 22.1634L81.0811 20.9761L81.6762 17.2781L81.6486 17.255L78.1294 18.5011L76.8053 17.3909L81.6436 15.8414L82.2788 11.0496L83.6949 12.2369L83.1438 15.6585L83.1713 15.6816L86.4627 14.5577L87.7869 15.6679L83.1609 17.1136L82.4972 22.1634ZM88.5227 27.2156L87.1066 26.0282L87.7017 22.3303L87.6741 22.3071L84.1549 23.5533L82.8308 22.4431L87.6691 20.8936L88.3043 16.1018L89.7204 17.2891L89.1693 20.7107L89.1968 20.7338L92.4882 19.6098L93.8124 20.7201L89.1864 22.1657L88.5227 27.2156ZM89.4448 27.9887L94.8264 21.5703L96.0402 22.588L91.5607 27.9305L94.0894 30.0508L93.1873 31.1267L89.4448 27.9887Z" fill="white"/>
</g>
<rect x="1.08369" y="15.6613" width="98" height="158" rx="9" transform="rotate(-5.02135 1.08369 15.6613)" stroke="#495971" stroke-width="2"/>
<g clip-path="url(#clip3_1470_9160)">
<rect x="104.817" y="15" width="100" height="160" rx="10" transform="rotate(5.67335 104.817 15)" fill="#32465F"/>
<g clip-path="url(#clip4_1470_9160)">
<g clip-path="url(#clip5_1470_9160)">
<path d="M172.139 144.386C170.953 156.324 157.913 155.383 141.869 153.789C125.826 152.195 112.856 150.552 114.042 138.614C115.228 126.675 130.121 108.962 146.164 110.556C162.208 112.149 173.325 132.446 172.139 144.386Z" fill="#FF007A"/>
<path d="M144.607 119.982C140.6 119.584 137.675 116.013 138.073 112.007L139.411 98.5388L153.92 99.9802L152.582 113.448C152.184 117.454 148.614 120.38 144.607 119.982Z" fill="#F8B5A2"/>
<path d="M142.582 109.913C146.368 110.289 149.766 111.565 152.572 113.533L154.089 98.261L139.583 96.8198L138.263 110.107C139.682 109.847 141.131 109.769 142.582 109.913Z" fill="#DE9C8A"/>
<path d="M126.71 77.7549C127.777 81.9334 126.3 85.9185 123.411 86.6561C120.522 87.3946 117.316 84.6051 116.248 80.4267C115.182 76.2484 116.658 72.2641 119.547 71.5256C122.436 70.788 125.642 73.5774 126.71 77.7549Z" fill="#DE9C8A"/>
<path d="M180.194 86.7792C178.325 90.6669 174.633 92.7701 171.946 91.4776C169.259 90.1861 168.595 85.9883 170.463 82.1024C172.331 78.2156 176.024 76.1115 178.711 77.404C181.397 78.6955 182.062 82.8924 180.194 86.7792Z" fill="#DE9C8A"/>
<path d="M123.467 110.511C122.144 97.1152 122.756 84.2795 123.227 79.5361L130.781 81.3919C130.439 93.7386 127.222 106.094 125.656 110.729C126.711 117.908 123.694 123.062 122.053 124.741C119.861 120.102 122.082 113.322 123.467 110.511Z" fill="#301D01"/>
<path d="M167.687 112.694C171.619 99.8194 173.544 87.1142 174.015 82.3708L166.244 82.7043C164.151 94.8769 164.874 107.624 165.497 112.476C163.05 119.308 164.995 124.954 166.273 126.924C169.335 122.806 168.491 115.721 167.687 112.694Z" fill="#301D01"/>
<path d="M122.648 69.2605C124.157 54.0693 136.664 49.8424 151.429 51.3092C166.194 52.7759 177.626 59.3812 176.117 74.5724C174.608 89.7645 156.098 107.332 145.964 106.325C135.83 105.318 121.139 84.4526 122.648 69.2605Z" fill="#F8B5A2"/>
<path d="M143.391 91.2993C143.465 93.4219 144.997 95.2016 147.049 95.4053C149.1 95.6091 150.952 94.1657 151.444 92.0994L143.391 91.2993Z" fill="#E68284"/>
<path d="M138.042 79.6062C137.886 81.1837 136.869 82.3749 135.771 82.2657C134.674 82.1568 133.911 80.7889 134.068 79.2113C134.224 77.6347 135.242 76.4437 136.338 76.5526C137.437 76.6617 138.199 78.0296 138.042 79.6062Z" fill="#534741"/>
<path d="M162.962 82.0818C162.805 83.6593 161.788 84.8503 160.69 84.7413C159.594 84.6324 158.83 83.2644 158.987 81.6869C159.144 80.1103 160.161 78.9193 161.258 79.0282C162.355 79.1372 163.118 80.5052 162.962 82.0818Z" fill="#534741"/>
<path d="M150.534 85.5708C150.443 86.4851 149.257 87.116 147.885 86.9796C146.513 86.8434 145.476 85.9916 145.567 85.0773C145.657 84.1639 147.142 80.5103 148.514 80.6465C149.886 80.7829 150.624 84.6573 150.534 85.5708Z" fill="#E68284"/>
<g opacity="0.3">
<path d="M136.51 85.8504C136.357 87.3875 134.395 88.4493 132.127 88.2241C129.86 87.9988 128.146 86.5717 128.298 85.0347C128.451 83.4976 130.413 82.4338 132.68 82.6591C134.948 82.8843 136.663 84.3134 136.51 85.8504Z" fill="#E68284"/>
</g>
<g opacity="0.3">
<path d="M159.261 88.1106C159.109 89.6476 160.824 91.0749 163.091 91.3001C165.358 91.5254 167.321 90.4635 167.474 88.9264C167.626 87.3894 165.911 85.9603 163.644 85.7351C161.376 85.5098 159.414 86.5735 159.261 88.1106Z" fill="#E68284"/>
</g>
<path d="M133.079 80.5148C130.974 74.9997 133.579 64.3517 135.145 59.7172C133.834 64.0086 133.874 68.8027 134.058 70.6633C145.616 70.0428 162.955 72.7971 170.18 74.2518C169.652 70.662 166.964 65.8259 165.685 63.8566C171.38 68.844 172.591 79.65 172.485 84.4295C178.937 75.1217 177.4 68.3366 175.863 61.5514C174.634 56.1233 170.093 52.8718 167.976 51.9246C162.194 47.8129 156.298 47.0797 154.073 47.2271C146.278 45.5685 141.193 47.053 139.625 48.0027C135.21 47.9326 125.682 50.3759 122.887 60.7102C120.092 71.0445 128.517 78.2192 133.079 80.5148Z" fill="#3D2502"/>
<path d="M130.679 93.5415C128.395 80.9339 129.423 69.0976 130.223 64.7554L125.511 56.5494C124.308 57.5352 121.684 61.6962 120.814 70.4531C119.944 79.21 127.028 89.4941 130.679 93.5415Z" fill="#3D2502"/>
<path d="M170.085 97.4561C173.669 88.0845 172.734 74.5055 171.818 68.8875L178.277 70.6345C179.599 84.0308 173.367 94.0974 170.085 97.4561Z" fill="#3D2502"/>
<path d="M126.702 111.321C127.797 111.43 126.811 110.227 126.92 109.132C127.007 108.256 125.497 108.622 124.731 108.915L123.527 109.9L124.513 111.104C125.499 112.307 125.608 111.212 126.702 111.321Z" fill="#FF007A"/>
<path d="M168.563 112.781L166.483 111.469L164.185 112.346L163.967 114.535L166.048 115.847L167.251 114.861L168.346 114.97L168.563 112.781Z" fill="#FF007A"/>
</g>
</g>
<path d="M168.504 21.3269L204.327 24.8857L200.768 60.7094L168.504 21.3269Z" fill="#292931"/>
<path d="M186.518 40.2745C186.209 39.897 185.979 39.5217 185.828 39.1486C185.689 38.7767 185.619 38.4201 185.619 38.079C185.624 37.7441 185.698 37.4303 185.841 37.1375C185.983 36.8447 186.191 36.5868 186.463 36.3637C186.884 36.0189 187.318 35.8546 187.766 35.8706C188.224 35.8877 188.666 36.0482 189.091 36.3518L189.165 36.291C189.019 35.8729 188.986 35.4603 189.066 35.0533C189.152 34.6525 189.383 34.2974 189.76 33.9882C190.008 33.7854 190.272 33.6467 190.552 33.5722C190.837 33.5039 191.13 33.5018 191.431 33.5658C191.732 33.6297 192.031 33.7618 192.33 33.962C192.639 34.1633 192.936 34.4372 193.22 34.7838C193.504 35.1303 193.712 35.4721 193.843 35.8092C193.986 36.1474 194.059 36.4702 194.062 36.7775C194.066 37.0848 194.004 37.3686 193.875 37.6287C193.752 37.895 193.567 38.1296 193.32 38.3324C192.942 38.6417 192.546 38.7956 192.131 38.7942C191.721 38.7989 191.326 38.6886 190.945 38.4631L190.87 38.524C191.084 39 191.152 39.4615 191.074 39.9085C191.007 40.3566 190.763 40.753 190.342 41.0978C190.069 41.3208 189.776 41.4736 189.461 41.556C189.145 41.6384 188.821 41.6459 188.486 41.5786C188.157 41.5174 187.821 41.3789 187.479 41.163C187.148 40.9482 186.827 40.652 186.518 40.2745ZM187.474 39.4912C187.763 39.8439 188.064 40.0472 188.377 40.1011C188.695 40.1611 189 40.072 189.291 39.8337L189.485 39.674C189.776 39.4357 189.924 39.1547 189.927 38.8311C189.936 38.5136 189.796 38.1785 189.507 37.8257C189.218 37.473 188.915 37.2666 188.597 37.2066C188.284 37.1528 187.982 37.245 187.691 37.4833L187.496 37.643C187.205 37.8813 187.055 38.1592 187.046 38.4766C187.043 38.8003 187.185 39.1385 187.474 39.4912ZM190.417 37.0805C190.685 37.4084 190.965 37.5982 191.256 37.6498C191.546 37.7014 191.827 37.6157 192.1 37.3926L192.248 37.2709C192.514 37.0529 192.651 36.7964 192.657 36.5015C192.664 36.2065 192.533 35.8951 192.264 35.5671C191.995 35.2391 191.716 35.0493 191.425 34.9977C191.135 34.9461 190.856 35.0293 190.59 35.2473L190.442 35.369C190.17 35.5921 190.03 35.8511 190.024 36.1461C190.017 36.441 190.148 36.7525 190.417 37.0805Z" fill="white"/>
</g>
<rect x="105.713" y="16.094" width="98" height="158" rx="9" transform="rotate(5.67335 105.713 16.094)" stroke="#495971" stroke-width="2"/>
<g clip-path="url(#clip6_1470_9160)">
<rect x="47" width="100" height="160" rx="10" fill="#32465F"/>
<g clip-path="url(#clip7_1470_9160)">
<path d="M126.783 122.096C126.783 134.094 113.714 134.446 97.5909 134.446C81.4691 134.446 68.4 134.094 68.4 122.096C68.4 110.098 81.4691 91 97.5909 91C113.714 91 126.783 110.098 126.783 122.096Z" fill="white"/>
<path d="M97.4392 97.7464C93.8365 97.7464 90.9161 94.8261 90.9161 91.225V79.1143H103.961V91.225C103.961 94.8261 101.041 97.7464 97.4392 97.7464Z" fill="#FFDBB0"/>
<path d="M94.7455 88.9604C98.1497 88.9604 101.288 89.7957 103.961 91.2993V77.5684H90.917V89.5154C92.1576 89.1581 93.4412 88.9604 94.7455 88.9604Z" fill="#F0C899"/>
<path d="M108.498 84.4001H85.5023C81.1247 84.4001 77.4316 81.1725 76.889 76.8714L72.8805 45.1485C72.1183 39.1232 76.865 33.8 82.9978 33.8H111.002C117.136 33.8 121.882 39.1232 121.119 45.1485L117.112 76.8714C116.569 81.1725 112.875 84.4001 108.498 84.4001Z" fill="#FFDBB0"/>
<path fill-rule="evenodd" clip-rule="evenodd" d="M75 71.2C75.3667 74.5 76.32 81.7599 77.2 84.3999C78.3 87.6999 91.5 93.1999 97 93.1999C102.5 93.1999 115.7 87.6999 116.8 84.3999C117.68 81.7599 118.633 74.5 119 71.2V60.2H116.8C116.067 62.7666 114.38 68.34 113.5 70.1C113.015 71.0691 112.744 70.9709 112.123 70.7458C111.333 70.4599 109.977 69.9691 106.9 71.2C102.5 72.96 98.4667 73.4 97 73.4C95.5333 73.4 91.5 72.96 87.1 71.2C84.0228 69.9691 82.6673 70.4599 81.8775 70.7458C81.2557 70.9709 80.9846 71.0691 80.5 70.1C79.62 68.34 77.9333 62.7666 77.2 60.2H75V71.2Z" fill="#D7966B"/>
<path fill-rule="evenodd" clip-rule="evenodd" d="M92.6 80C92.6 82.4301 94.5699 84.4 97 84.4C99.4301 84.4 101.4 82.4301 101.4 80H92.6Z" fill="white"/>
<path fill-rule="evenodd" clip-rule="evenodd" d="M70.3269 51.6878C70.1509 50.1978 69.9566 49.1329 69.8006 48.2778C69.6264 47.3236 69.5 46.6308 69.5 45.9C69.5 43.7 69.5 39.3 70.6 36C71.48 33.36 76.1 29.7666 78.3 28.3C82.3333 27.2 91.5 25.66 95.9 28.3C100.3 30.94 107.267 30.8666 110.2 30.5C112.767 30.1333 117.9 30.72 117.9 36C118.633 35.6333 120.1 34.46 120.1 32.7C120.1 30.5 122.3 33.8 122.3 36C123.033 36.3666 124.5 37.98 124.5 41.5C124.5 43.3437 124.098 45.3684 123.609 47.8272L123.609 47.8272C123.165 50.0627 122.649 52.6569 122.3 55.8L119 61.3H116.8L116.8 44.8C116.433 44.0666 115.04 42.6 112.4 42.6C111.094 42.6 109.617 42.9443 107.83 43.3606C105.102 43.9964 101.654 44.8 97 44.8C92.3465 44.8 88.8982 43.9964 86.1697 43.3606C84.3834 42.9443 82.9056 42.6 81.6 42.6C78.96 42.6 77.5667 44.0666 77.2 44.8V61.3H75V49.2547C73.1517 49.4783 71.5104 50.3729 70.3269 51.6878Z" fill="#D7966B"/>
<path fill-rule="evenodd" clip-rule="evenodd" d="M75 49.2546C71.2808 49.7045 68.4 52.8716 68.4 56.7115C68.4 60.5514 71.2808 63.7185 75 64.1683V49.2546Z" fill="#F0C899"/>
<path fill-rule="evenodd" clip-rule="evenodd" d="M119 49.2546C122.719 49.7045 125.6 52.8716 125.6 56.7115C125.6 60.5514 122.719 63.7185 119 64.1683V49.2546Z" fill="#F0C899"/>
<path d="M88.2 53.5999C88.2 54.815 87.2151 55.7999 86 55.7999C84.7849 55.7999 83.8 54.815 83.8 53.5999C83.8 52.3841 84.7849 51.3999 86 51.3999C87.2151 51.3999 88.2 52.3841 88.2 53.5999Z" fill="#534741"/>
<path d="M110.2 53.5999C110.2 54.815 109.215 55.7999 108 55.7999C106.785 55.7999 105.8 54.815 105.8 53.5999C105.8 52.3841 106.785 51.3999 108 51.3999C109.215 51.3999 110.2 52.3841 110.2 53.5999Z" fill="#534741"/>
<path d="M99.2 58.4746C99.2 59.4275 98.2149 60.2001 97 60.2001C95.7851 60.2001 94.8 59.4275 94.8 58.4746C94.8 57.5208 95.7851 53.6001 97 53.6001C98.2149 53.6001 99.2 57.5208 99.2 58.4746Z" fill="#E68284"/>
<g opacity="0.3">
<path d="M103.6 61.3824C103.6 63.2509 105.571 64.7647 108.001 64.7647C110.43 64.7647 112.4 63.2509 112.4 61.3824C112.4 59.5148 110.43 58 108.001 58C105.571 58 103.6 59.5148 103.6 61.3824Z" fill="#E68284"/>
</g>
<g opacity="0.3">
<path d="M81.6 61.3824C81.6 63.2509 83.5709 64.7647 86.001 64.7647C88.43 64.7647 90.4 63.2509 90.4 61.3824C90.4 59.5148 88.43 58 86.001 58C83.5709 58 81.6 59.5148 81.6 61.3824Z" fill="#E68284"/>
</g>
</g>
<path d="M111 0H147V36L111 0Z" fill="#292931"/>
<path d="M126.937 13.0084L127.845 12.1004L129.474 13.7296L133.683 9.52091L133.607 9.44455L130.79 9.68213L130.679 8.40086L133.895 8.12084L135.584 9.80941L130.569 14.8242L131.927 16.1819L131.019 17.0898L126.937 13.0084ZM137.006 16.0173C137.345 16.3567 137.662 16.5378 137.956 16.5604C138.262 16.583 138.522 16.4868 138.737 16.2719L138.796 16.2125C139.04 15.9692 139.15 15.7005 139.127 15.4064C139.116 15.1122 138.975 14.8294 138.703 14.5579C138.443 14.2976 138.149 14.1279 137.821 14.0487C137.498 13.9752 137.15 13.978 136.777 14.0572L136.709 12.6996C136.947 12.6656 137.184 12.6487 137.422 12.6487C137.671 12.6487 137.917 12.6854 138.16 12.759C138.409 12.8269 138.658 12.9343 138.907 13.0814C139.156 13.2285 139.405 13.4265 139.653 13.6754C139.953 13.9752 140.188 14.2835 140.358 14.6003C140.539 14.9171 140.649 15.231 140.689 15.5421C140.734 15.8589 140.708 16.1616 140.612 16.4501C140.522 16.7329 140.358 16.9931 140.12 17.2307C139.928 17.4231 139.724 17.5645 139.509 17.655C139.3 17.7512 139.085 17.8021 138.864 17.8077C138.649 17.819 138.434 17.7907 138.219 17.7229C138.016 17.655 137.821 17.5616 137.634 17.4429L137.583 17.4938C137.719 17.6974 137.826 17.9124 137.906 18.1386C137.985 18.3649 138.016 18.594 137.999 18.826C137.993 19.0579 137.939 19.287 137.838 19.5133C137.741 19.7452 137.589 19.9658 137.379 20.1751C137.119 20.4353 136.828 20.6192 136.505 20.7267C136.189 20.8398 135.858 20.8766 135.513 20.837C135.168 20.7974 134.82 20.6871 134.469 20.506C134.124 20.3194 133.787 20.062 133.459 19.7339C133.171 19.4454 132.947 19.1597 132.789 18.8769C132.625 18.5997 132.509 18.3253 132.441 18.0538C132.379 17.7879 132.35 17.5277 132.356 17.2731C132.367 17.0129 132.401 16.764 132.458 16.5264L133.909 16.7216C133.858 16.9083 133.821 17.0921 133.799 17.2731C133.782 17.4485 133.787 17.6239 133.816 17.7992C133.844 17.9746 133.903 18.1471 133.994 18.3168C134.084 18.4865 134.212 18.6534 134.376 18.8175C134.704 19.1456 135.035 19.3181 135.368 19.3351C135.702 19.352 136.008 19.2219 136.285 18.9447L136.344 18.8853C136.616 18.6138 136.726 18.3112 136.675 17.9774C136.63 17.6493 136.429 17.3071 136.073 16.9507L135.487 16.3652L136.421 15.4318L137.006 16.0173Z" fill="white"/>
</g>
<rect x="48" y="1" width="98" height="158" rx="9" stroke="#495971" stroke-width="2"/>
<defs>
<clipPath id="clip0_1470_9160">
<rect y="14.7527" width="100" height="160" rx="10" transform="rotate(-5.02135 0 14.7527)" fill="white"/>
</clipPath>
<clipPath id="clip1_1470_9160">
<rect width="100" height="160" fill="white" transform="translate(0 14.7527) rotate(-5.02135)"/>
</clipPath>
<clipPath id="clip2_1470_9160">
<rect width="110" height="110" fill="white" transform="translate(-2.79263 40.0945) rotate(-5.02135)"/>
</clipPath>
<clipPath id="clip3_1470_9160">
<rect x="104.817" y="15" width="100" height="160" rx="10" transform="rotate(5.67335 104.817 15)" fill="white"/>
</clipPath>
<clipPath id="clip4_1470_9160">
<rect width="100" height="160" fill="white" transform="translate(104.817 15) rotate(5.67335)"/>
</clipPath>
<clipPath id="clip5_1470_9160">
<rect width="110" height="110" fill="white" transform="translate(97.3702 39.3833) rotate(5.67335)"/>
</clipPath>
<clipPath id="clip6_1470_9160">
<rect x="47" width="100" height="160" rx="10" fill="white"/>
</clipPath>
<clipPath id="clip7_1470_9160">
<rect width="100" height="160" fill="white" transform="translate(47)"/>
</clipPath>
</defs>
</svg>
