<?xml version="1.0" encoding="utf-8"?>
<!-- Generator: Adobe Illustrator 19.1.0, SVG Export Plug-In . SVG Version: 6.00 Build 0)  -->
<svg version="1.1" id="Ebene_1" xmlns="http://www.w3.org/2000/svg" xmlns:xlink="http://www.w3.org/1999/xlink" x="0px" y="0px"
	 viewBox="0 0 100 51.9" style="enable-background:new 0 0 100 51.9;" xml:space="preserve">
<style type="text/css">
	.st0{fill:#1E1E1E;}
</style>
<g>
	<path class="st0" d="M98.6,2.7H1.3c-0.8,0-1.4-0.6-1.4-1.4S0.5,0,1.3,0h97.4c0.8,0,1.4,0.6,1.4,1.4S99.4,2.7,98.6,2.7z"/>
	<path class="st0" d="M98.6,27.3H1.3c-0.8,0-1.4-0.6-1.4-1.4s0.6-1.4,1.4-1.4h97.4c0.8,0,1.4,0.6,1.4,1.4S99.4,27.3,98.6,27.3z"/>
	<path class="st0" d="M98.6,51.9H1.3c-0.8,0-1.4-0.6-1.4-1.4c0-0.8,0.6-1.4,1.4-1.4h97.4c0.8,0,1.4,0.6,1.4,1.4
		C100,51.2,99.4,51.9,98.6,51.9z"/>
</g>
</svg>
