<?xml version="1.0" encoding="UTF-8" standalone="no"?>
<svg
   width="100"
   height="140"
   viewBox="0 0 94 111"
   version="1.1"
   xml:space="preserve"
   style="fill-rule:evenodd;clip-rule:evenodd;stroke-linecap:round;stroke-miterlimit:10;"
   id="svg837"
   sodipodi:docname="player-green.svg"
   inkscape:version="1.2.2 (b0a8486541, 2022-12-01)"
   xmlns:inkscape="http://www.inkscape.org/namespaces/inkscape"
   xmlns:sodipodi="http://sodipodi.sourceforge.net/DTD/sodipodi-0.dtd"
   xmlns="http://www.w3.org/2000/svg"
   xmlns:svg="http://www.w3.org/2000/svg"><defs
     id="defs841" /><sodipodi:namedview
     id="namedview839"
     pagecolor="#ffffff"
     bordercolor="#000000"
     borderopacity="0.25"
     inkscape:showpageshadow="2"
     inkscape:pageopacity="0.0"
     inkscape:pagecheckerboard="0"
     inkscape:deskcolor="#d1d1d1"
     showgrid="false"
     inkscape:zoom="2.4239111"
     inkscape:cx="42.699586"
     inkscape:cy="78.179436"
     inkscape:window-width="956"
     inkscape:window-height="662"
     inkscape:window-x="960"
     inkscape:window-y="416"
     inkscape:window-maximized="1"
     inkscape:current-layer="svg837" /><g
     id="g9427"
     transform="matrix(1.0643257,0,0,1.0643257,-2.9525046,-3.3226206)"><path
       d="m 79.041,96.95 c 0,13.198 -14.376,13.585 -32.11,13.585 -17.734,0 -32.11,-0.387 -32.11,-13.585 0,-13.198 14.376,-34.206 32.11,-34.206 17.734,0 32.11,21.008 32.11,34.206"
       style="fill:#009d6d;fill-rule:nonzero"
       id="path803" /><path
       d="m 46.936,74.008 c -4.356,0 -7.886,-3.531 -7.886,-7.887 V 51.479 h 15.772 v 14.642 c 0,4.356 -3.53,7.887 -7.886,7.887"
       style="fill:#ffdbb0;fill-rule:nonzero"
       id="path805" /><path
       d="m 43.68,63.385 c 4.116,0 7.909,1.009 11.142,2.828 V 49.61 H 39.05 v 14.445 c 1.501,-0.432 3.052,-0.67 4.63,-0.67"
       style="fill:#f0c899;fill-rule:nonzero"
       id="path807" /><path
       d="M 18.88,26.659 C 20.85,30.888 21.187,40.57 16.958,42.54 12.729,44.509 5.535,38.019 3.566,33.79 1.596,29.561 3.428,24.537 7.657,22.567 c 4.229,-1.969 9.254,-0.138 11.223,4.092"
       style="fill:#f0c899;fill-rule:nonzero"
       id="path809" /><path
       d="M 74.987,26.659 C 73.018,30.888 72.68,40.57 76.909,42.54 81.138,44.509 88.332,38.019 90.302,33.79 92.27,29.561 90.439,24.537 86.21,22.567 81.98,20.598 76.956,22.429 74.987,26.659"
       style="fill:#f0c899;fill-rule:nonzero"
       id="path811" /><path
       d="m 76.838,37.848 c 0,16.516 -13.389,22.402 -29.905,22.402 -16.515,0 -29.904,-5.886 -29.904,-22.402 0,-16.516 13.389,-37.407 29.904,-37.407 16.516,0 29.905,20.891 29.905,37.407"
       style="fill:#ffdbb0;fill-rule:nonzero"
       id="path813" /><path
       d="m 35.548,31.737 c 0,1.716 -0.967,3.106 -2.16,3.106 -1.193,0 -2.16,-1.39 -2.16,-3.106"
       style="fill:none;fill-rule:nonzero;stroke:#534741;stroke-width:1.25px"
       id="path815" /><path
       d="m 62.639,31.737 c 0,1.716 -0.967,3.106 -2.16,3.106 -1.194,0 -2.16,-1.39 -2.16,-3.106"
       style="fill:none;fill-rule:nonzero;stroke:#534741;stroke-width:1.25px"
       id="path817" /><path
       d="m 48.785,37.314 c 0,0.723 -0.829,1.309 -1.852,1.309 -1.022,0 -1.851,-0.586 -1.851,-1.309 0,-0.723 0.829,-3.698 1.851,-3.698 1.023,0 1.852,2.975 1.852,3.698"
       style="fill:#e68284;fill-rule:nonzero"
       id="path819" /><path
       d="m 52.064,40.603 c 0,2.286 -2.297,4.14 -5.131,4.14 -2.833,0 -5.13,-1.854 -5.13,-4.14"
       style="fill:none;fill-rule:nonzero;stroke:#534741;stroke-width:1.24px"
       id="path821" /><g
       opacity="0.3"
       id="g825"><path
         d="m 32.749,40.704 c 0,1.917 -2.293,3.47 -5.121,3.47 -2.828,0 -5.12,-1.553 -5.12,-3.47 0,-1.917 2.292,-3.471 5.12,-3.471 2.828,0 5.121,1.554 5.121,3.471"
         style="fill:#e68284;fill-rule:nonzero"
         id="path823" /></g><g
       opacity="0.3"
       id="g829"><path
         d="m 61.123,40.704 c 0,1.917 2.293,3.47 5.121,3.47 2.828,0 5.12,-1.553 5.12,-3.47 0,-1.917 -2.292,-3.471 -5.12,-3.471 -2.828,0 -5.121,1.554 -5.121,3.471"
         style="fill:#e68284;fill-rule:nonzero"
         id="path827" /></g><path
       d="m 27.39,25.334 c 0,0 4.451,-5.184 11.411,-0.531"
       style="fill:none;fill-rule:nonzero;stroke:#333333;stroke-width:1.87px"
       id="path831" /><path
       d="m 66.472,25.334 c 0,0 -4.451,-5.184 -11.41,-0.531"
       style="fill:none;fill-rule:nonzero;stroke:#333333;stroke-width:1.87px"
       id="path833" /><path
       d="M 46.933,0 C 25.687,0 18.88,26.659 18.88,26.659 25.52,24.363 31.987,8.128 31.987,8.128 c 0,0 6.604,2.731 14.946,2.731 8.343,0 14.947,-2.731 14.947,-2.731 0,0 6.467,16.235 13.106,18.531 C 74.986,26.659 68.18,0 46.933,0"
       style="fill:#333333;fill-rule:nonzero"
       id="path835" /></g></svg>
